{
    "name": "Zoxel.Skeletons.Rendering",
    "rootNamespace": "Zoxel.Skeletons",
    "references": [
        "GUID:734d92eba21c94caba915361bd5ac177",
        "GUID:2665a8d13d1b3f18800f46e256720795",
        "GUID:8a2eafa29b15f444eb6d74f94a930e1d",
        "GUID:e0cd26848372d4e5c891c569017e11f1",
        "GUID:a5baed0c9693541a5bd947d336ec7659",
        "GUID:d8b63aba1907145bea998dd612889d6b",
        "GUID:bbf05cd9536d2e27aaf788c167aba953",
        "GUID:99c9dcfdd49f7d20abf30fbd95f2f598",
        "GUID:f4015aa11fe42021080a9cf9545edb37",
        "GUID:80d5ff2bff3fa9c4e84079673c70e897",
        "GUID:c1f9c15fa41483174b9ddb3b3822cb00"
    ],
    "includePlatforms": [],
    "excludePlatforms": [],
    "allowUnsafeCode": false,
    "overrideReferences": false,
    "precompiledReferences": [],
    "autoReferenced": false,
    "defineConstraints": [],
    "versionDefines": [],
    "noEngineReferences": false
}