{
    "name": "Zoxel.Cameras.PostProcessing",
    "rootNamespace": "Zoxel.Cameras",
    "references": [
        "GUID:bbf05cd9536d2e27aaf788c167aba953",
        "GUID:99c9dcfdd49f7d20abf30fbd95f2f598",
        "GUID:c1f9c15fa41483174b9ddb3b3822cb00",
        "GUID:f74fce273c589ec39831245b61868f8a",
        "GUID:734d92eba21c94caba915361bd5ac177",
        "GUID:2665a8d13d1b3f18800f46e256720795",
        "GUID:e0cd26848372d4e5c891c569017e11f1",
        "GUID:8a2eafa29b15f444eb6d74f94a930e1d",
        "GUID:d8b63aba1907145bea998dd612889d6b",
        "GUID:a5baed0c9693541a5bd947d336ec7659",
        "GUID:df380645f10b7bc4b97d4f5eb6303d95",
        "GUID:15fc0a57446b3144c949da3e2b9737a9"
    ],
    "includePlatforms": [],
    "excludePlatforms": [],
    "allowUnsafeCode": false,
    "overrideReferences": false,
    "precompiledReferences": [],
    "autoReferenced": false,
    "defineConstraints": [],
    "versionDefines": [],
    "noEngineReferences": false
}