{
    "name": "Zoxel.Actions.UI",
    "rootNamespace": "Zoxel.Actions",
    "references": [
        "GUID:bbf05cd9536d2e27aaf788c167aba953",
        "GUID:87fdd5594b1fd04c68ade55c39150bf0",
        "GUID:df60c0b3e31f524c988c9db3b9f0c0ed",
        "GUID:54fd62271c7c6accdbec8876cd7f5e08",
        "GUID:f7bd6cf7d1e035a48b671086c7e44bde",
        "GUID:572b93e627b802e09befcd841f1bc0f4",
        "GUID:f98773346a4dd6f8eafa736545fc3148",
        "GUID:c541ef4e6e1fe9bb18997788ef486430",
        "GUID:01a92d691687048bd9f40db64e281e20",
        "GUID:99c9dcfdd49f7d20abf30fbd95f2f598",
        "GUID:80d5ff2bff3fa9c4e84079673c70e897",
        "GUID:09253648a16835ecb9506836c7f22b7d",
        "GUID:46be60966af7373bfa082628ae7f0c03",
        "GUID:2d9e10c1088bd8fc6a600d17b62b7479",
        "GUID:c1f9c15fa41483174b9ddb3b3822cb00",
        "GUID:f74fce273c589ec39831245b61868f8a",
        "GUID:87505e834f809d9e98e6163267dfb14f",
        "GUID:734d92eba21c94caba915361bd5ac177",
        "GUID:2665a8d13d1b3f18800f46e256720795",
        "GUID:8a2eafa29b15f444eb6d74f94a930e1d",
        "GUID:e0cd26848372d4e5c891c569017e11f1",
        "GUID:d8b63aba1907145bea998dd612889d6b",
        "GUID:255cad69790c35a7e8325b53d5684842"
    ],
    "includePlatforms": [],
    "excludePlatforms": [],
    "allowUnsafeCode": false,
    "overrideReferences": false,
    "precompiledReferences": [],
    "autoReferenced": false,
    "defineConstraints": [],
    "versionDefines": [],
    "noEngineReferences": false
}