{
    "name": "Zoxel.Zoxel2D",
    "rootNamespace": "Zoxel",
    "references": [
        "GUID:bbf05cd9536d2e27aaf788c167aba953",
        "GUID:99c9dcfdd49f7d20abf30fbd95f2f598",
        "GUID:f74fce273c589ec39831245b61868f8a",
        "GUID:f98773346a4dd6f8eafa736545fc3148",
        "GUID:30eb478aca6c27e76b72238e9798e876",
        "GUID:a59697b5d857bdea49ec0f580f0cb515",
        "GUID:67cf04d6f32c9c6b29daa69be1b5b05d",
        "GUID:ab0a744ef7dac7fc29c3247afa305593",
        "GUID:c1f9c15fa41483174b9ddb3b3822cb00",
        "GUID:a0feb231c2a5e380596775734ac49aa7",
        "GUID:255cad69790c35a7e8325b53d5684842",
        "GUID:87fdd5594b1fd04c68ade55c39150bf0",
        "GUID:734d92eba21c94caba915361bd5ac177",
        "GUID:2665a8d13d1b3f18800f46e256720795",
        "GUID:e0cd26848372d4e5c891c569017e11f1",
        "GUID:d8b63aba1907145bea998dd612889d6b",
        "GUID:75469ad4d38634e559750d17036d5f7c"
    ],
    "includePlatforms": [],
    "excludePlatforms": [],
    "allowUnsafeCode": false,
    "overrideReferences": false,
    "precompiledReferences": [],
    "autoReferenced": false,
    "defineConstraints": [],
    "versionDefines": [],
    "noEngineReferences": false
}