{
    "name": "Zoxel.VoxelInteraction",
    "rootNamespace": "Zoxel",
    "references": [
        "GUID:bbf05cd9536d2e27aaf788c167aba953",
        "GUID:99c9dcfdd49f7d20abf30fbd95f2f598",
        "GUID:c1f9c15fa41483174b9ddb3b3822cb00",
        "GUID:df60c0b3e31f524c988c9db3b9f0c0ed",
        "GUID:87fdd5594b1fd04c68ade55c39150bf0",
        "GUID:f74fce273c589ec39831245b61868f8a",
        "GUID:f7bd6cf7d1e035a48b671086c7e44bde",
        "GUID:80d5ff2bff3fa9c4e84079673c70e897",
        "GUID:e59511d402d4635f5975f43a5c7804fd",
        "GUID:37ad5944b16659e7089da02cb1af749a",
        "GUID:3eeabd87434cce593a878b69f674e36c",
        "GUID:c541ef4e6e1fe9bb18997788ef486430",
        "GUID:c9ef44aa9e09d3a31981ebf5b6dd2b2f",
        "GUID:54fd62271c7c6accdbec8876cd7f5e08",
        "GUID:8a5c033ac0c016416b6114618e57aea7",
        "GUID:f98773346a4dd6f8eafa736545fc3148",
        "GUID:1c662bd10c3f809f99b73cb8f25db1c2",
        "GUID:46be60966af7373bfa082628ae7f0c03",
        "GUID:734d92eba21c94caba915361bd5ac177",
        "GUID:2665a8d13d1b3f18800f46e256720795",
        "GUID:d8b63aba1907145bea998dd612889d6b",
        "GUID:e0cd26848372d4e5c891c569017e11f1",
        "GUID:8a2eafa29b15f444eb6d74f94a930e1d"
    ],
    "includePlatforms": [],
    "excludePlatforms": [],
    "allowUnsafeCode": false,
    "overrideReferences": false,
    "precompiledReferences": [],
    "autoReferenced": false,
    "defineConstraints": [],
    "versionDefines": [],
    "noEngineReferences": false
}