{
    "name": "Zoxel.Turrets",
    "rootNamespace": "Zoxel",
    "references": [
        "GUID:bbf05cd9536d2e27aaf788c167aba953",
        "GUID:99c9dcfdd49f7d20abf30fbd95f2f598",
        "GUID:734d92eba21c94caba915361bd5ac177",
        "GUID:2665a8d13d1b3f18800f46e256720795",
        "GUID:d8b63aba1907145bea998dd612889d6b",
        "GUID:e0cd26848372d4e5c891c569017e11f1",
        "GUID:8a2eafa29b15f444eb6d74f94a930e1d",
        "GUID:30eb478aca6c27e76b72238e9798e876",
        "GUID:54fd62271c7c6accdbec8876cd7f5e08",
        "GUID:01a92d691687048bd9f40db64e281e20",
        "GUID:572b93e627b802e09befcd841f1bc0f4",
        "GUID:80d5ff2bff3fa9c4e84079673c70e897",
        "GUID:e9e26839189a4b956b00751156ccf19f",
        "GUID:4ff3c1ea7eacb21c7ac201718ac8e159",
        "GUID:f98773346a4dd6f8eafa736545fc3148",
        "GUID:c1f9c15fa41483174b9ddb3b3822cb00",
        "GUID:e59511d402d4635f5975f43a5c7804fd"
    ],
    "includePlatforms": [],
    "excludePlatforms": [],
    "allowUnsafeCode": false,
    "overrideReferences": false,
    "precompiledReferences": [],
    "autoReferenced": false,
    "defineConstraints": [],
    "versionDefines": [],
    "noEngineReferences": false
}