%YAML 1.1
%TAG !u! tag:unity3d.com,2011:
--- !u!114 &11400000
MonoBehaviour:
  m_ObjectHideFlags: 0
  m_CorrespondingSourceObject: {fileID: 0}
  m_PrefabInstance: {fileID: 0}
  m_PrefabAsset: {fileID: 0}
  m_GameObject: {fileID: 0}
  m_Enabled: 1
  m_EditorHideFlags: 0
  m_Script: {fileID: 11500000, guid: 60394e3348ae0953da727a3c0efe8940, type: 3}
  m_Name: Woxel-VoxelSettings
  m_EditorClassIdentifier: 
  voxelSettings:
    voxelDimensions:
      x: 16
      y: 16
      z: 16
    planetVoxelScale:
      x: 1
      y: 1
      z: 1
    timePerStream: 2
    isTextureDarkOutlines: 1
    voxelTextureResolution: 64
    textureLowerDistances: 020000000400000006000000080000000a0000000c000000
    disableVoxelTextures: 0
    minivoxDistance: 2
    minivoxResolution: 16
    debugDoorAnimations: 0
    characterRenderDistance: 3
    voxelScale: 32
    entitySelectedColor: {r: 0.38679248, g: 0.045612313, b: 0.06333596, a: 1}
    voxelNoiseColorVariation: 0.04
    disableVoxelNoise: 0
    aoCornerDarkness: 0.3
    aoEdgeDarkness: 0.4
    disableAO: 0
    grassResolution: 16
    grassTopThickness: 0.4
    grassSelectionSpeed: 1
    grassHeight:
      x: 0.1
      y: 1.2
    grassStrandSpawnChance:
      x: 4
      y: 22
    grassStrandsCount:
      x: 12
      y: 80
    grassStrandColorVariance: 0.016
    grassSelectedColor: {r: 0.6792453, g: 0.016019935, b: 0.26618388, a: 1}
    grassWindVariance: 0.1
    grassWindTick:
      x: 0.4
      y: 0.7
    grassWindSpeed: 2
    disableGrassWind: 0
    raycastLength: 32
    disableEntityHighlight: 0
    maxGravityDepth: 0
    isDebugGravity: 0
    debugGravityViewDistance: 0
    debugGravityDepth: 0
    debugGravityShowNone: 0
    isDrawWireframes: 0
    isDrawChunkColliders: 0
    isDebugStructures: 0
    isColourWeights: 0
    isDrawBoneBoxes: 0
    disableAnimations: 0
    disableModels: 0
    disableGear: 0
    disableMinivoxes: 0
    disableBigMinivoxes: 0
    disablePortals: 0
    disableGrass: 0
    disableWorldStreaming: 0
    disableWorlds: 0
    disableVoxelPlacement: 0
    disableLightNextToEdgeChunks: 1
    disableRaycasting: 0
    disablePlanetIO: 1
    disablePlanetChunkIO: 1
    disableCharacterLighting: 0
    disableVoxelLighting: 0
    disableSmoothLighting: 0
    eraseBrushSize:
      x: 0
      y: 0
      z: 0
    isStatistics: 0
