%YAML 1.1
%TAG !u! tag:unity3d.com,2011:
--- !u!114 &11400000
MonoBehaviour:
  m_ObjectHideFlags: 0
  m_CorrespondingSourceObject: {fileID: 0}
  m_PrefabInstance: {fileID: 0}
  m_PrefabAsset: {fileID: 0}
  m_GameObject: {fileID: 0}
  m_Enabled: 1
  m_EditorHideFlags: 0
  m_Script: {fileID: 11500000, guid: 8ba8d6b75af040d19bb6df9b027682c1, type: 3}
  m_Name: woxel-camera-settings
  m_EditorClassIdentifier: 
  playerCameraPrefab: {fileID: 426515000576090837, guid: 390cbb2ecf06e22d3a7d55fd6622c255, type: 3}
  firstPersonCameraPrefab: {fileID: 426515000576090837, guid: 526a5b22c7a6f262086d7a5329090f33, type: 3}
  voxelViewerCameraPrefab: {fileID: 8701645661187458329, guid: 94473230cb4043edda66d087dc537d96, type: 3}
  characterViewerCameraPrefab: {fileID: 3364494816110264144, guid: 1fe136c3de1761df99667c099aa6c2c3, type: 3}
  portalCameraPrefab: {fileID: 5321988061674680360, guid: 34aeb0b256c59b1a5acedc1d57c5cd9c, type: 3}
  cameraSettings:
    uiDepth: 1
    spawnCameraPosition:
      x: 0
      y: 0
      z: 0
    mainMenuBackgroundColor:
      red: 0
      green: 0
      blue: 0
      alpha: 0
    fieldOfView: 0
    characterViewerResolution: 256
    voxelViewerResolution: 32
    isTopDownCamera: 1
  mouseSettings:
    rotationBoundsX:
      x: -70
      y: 85
    disableCameraHeadOffset: 0
    mouseSpeed:
      x: 0.22
      y: 0.18
    gamepadCameraSpeed:
      x: 160
      y: 80
    isLerpRotation: 0
    mouseLerpSpeed: 28
    isAverageInput: 0
  firstPersonCameraSettings:
    cameraBobBaseSpeed: 0.6
    cameraBobSpeedMultiplier: 3
    cameraBobDistance: 0
    walkingDistanceDistanceMultiplier: 0
    cameraBobWalkingSpeedMultiplier: 0
    cameraBobHeightLerpSpeed: 0
    disableHeadBob: 0
