%YAML 1.1
%TAG !u! tag:unity3d.com,2011:
--- !u!114 &11400000
MonoBehaviour:
  m_ObjectHideFlags: 0
  m_CorrespondingSourceObject: {fileID: 0}
  m_PrefabInstance: {fileID: 0}
  m_PrefabAsset: {fileID: 0}
  m_GameObject: {fileID: 0}
  m_Enabled: 1
  m_EditorHideFlags: 0
  m_Script: {fileID: 11500000, guid: 3b4da7a1910a20eecaf534502a0a7902, type: 3}
  m_Name: Dexterity Icon
  m_EditorClassIdentifier: 
  data:
    id: -23796657
    width: 0
    height: 0
    colors: []
  texture: {fileID: 2800000, guid: 6c1e131b1940053408f8d812255429c3, type: 3}
