{
    "name": "Zoxel.Stats.UI",
    "rootNamespace": "Zoxel.Stats",
    "references": [
        "GUID:bbf05cd9536d2e27aaf788c167aba953",
        "GUID:54fd62271c7c6accdbec8876cd7f5e08",
        "GUID:8a5c033ac0c016416b6114618e57aea7",
        "GUID:c1f9c15fa41483174b9ddb3b3822cb00",
        "GUID:a5baed0c9693541a5bd947d336ec7659",
        "GUID:99c9dcfdd49f7d20abf30fbd95f2f598",
        "GUID:87fdd5594b1fd04c68ade55c39150bf0",
        "GUID:f98773346a4dd6f8eafa736545fc3148",
        "GUID:df60c0b3e31f524c988c9db3b9f0c0ed",
        "GUID:f74fce273c589ec39831245b61868f8a",
        "GUID:734d92eba21c94caba915361bd5ac177",
        "GUID:2665a8d13d1b3f18800f46e256720795",
        "GUID:8a2eafa29b15f444eb6d74f94a930e1d",
        "GUID:e0cd26848372d4e5c891c569017e11f1",
        "GUID:d8b63aba1907145bea998dd612889d6b"
    ],
    "includePlatforms": [],
    "excludePlatforms": [],
    "allowUnsafeCode": false,
    "overrideReferences": false,
    "precompiledReferences": [],
    "autoReferenced": false,
    "defineConstraints": [],
    "versionDefines": [],
    "noEngineReferences": false
}