%YAML 1.1
%TAG !u! tag:unity3d.com,2011:
--- !u!114 &11400000
MonoBehaviour:
  m_ObjectHideFlags: 0
  m_CorrespondingSourceObject: {fileID: 0}
  m_PrefabInstance: {fileID: 0}
  m_PrefabAsset: {fileID: 0}
  m_GameObject: {fileID: 0}
  m_Enabled: 1
  m_EditorHideFlags: 0
  m_Script: {fileID: 11500000, guid: 83423c6821253f946aa2dd9db23584ed, type: 3}
  m_Name: GlobalEntitySceneDependency
  m_EditorClassIdentifier: 
  cacheGUID:
    Value:
      x: 2644954485
      y: 2164468641
      z: 2115920296
      w: 180423793
