{
    "name": "Zoxel.Characters.Authoring",
    "rootNamespace": "Zoxel",
    "references": [
        "GUID:bbf05cd9536d2e27aaf788c167aba953",
        "GUID:734d92eba21c94caba915361bd5ac177",
        "GUID:8819f35a0fc84499b990e90a4ca1911f",
        "GUID:d8b63aba1907145bea998dd612889d6b",
        "GUID:e0cd26848372d4e5c891c569017e11f1"
    ],
    "includePlatforms": [],
    "excludePlatforms": [],
    "allowUnsafeCode": false,
    "overrideReferences": false,
    "precompiledReferences": [],
    "autoReferenced": false,
    "defineConstraints": [],
    "versionDefines": [],
    "noEngineReferences": false
}