%YAML 1.1
%TAG !u! tag:unity3d.com,2011:
--- !u!114 &11400000
MonoBehaviour:
  m_ObjectHideFlags: 0
  m_CorrespondingSourceObject: {fileID: 0}
  m_PrefabInstance: {fileID: 0}
  m_PrefabAsset: {fileID: 0}
  m_GameObject: {fileID: 0}
  m_Enabled: 1
  m_EditorHideFlags: 0
  m_Script: {fileID: 11500000, guid: 7aa416bff6a35e80aa5fec195c37a82c, type: 3}
  m_Name: Foot
  m_EditorClassIdentifier: 
  data:
    id: -2089510830
    layer: 0
    core: 0
    anchor: 3
  modifier: 0
  femaleSlots:
  - {fileID: 11400000, guid: d67ec53f6f44cc83181b954c7a25bc23, type: 2}
  femaleModifiers: 
