{
    "name": "Zoxel.VoxelInteraction.Players",
    "rootNamespace": "Zoxel.VoxelInteraction",
    "references": [
        "GUID:bbf05cd9536d2e27aaf788c167aba953",
        "GUID:df60c0b3e31f524c988c9db3b9f0c0ed",
        "GUID:99c9dcfdd49f7d20abf30fbd95f2f598",
        "GUID:f7bd6cf7d1e035a48b671086c7e44bde",
        "GUID:f98773346a4dd6f8eafa736545fc3148",
        "GUID:1c662bd10c3f809f99b73cb8f25db1c2",
        "GUID:80d5ff2bff3fa9c4e84079673c70e897",
        "GUID:c541ef4e6e1fe9bb18997788ef486430",
        "GUID:c9ef44aa9e09d3a31981ebf5b6dd2b2f",
        "GUID:54fd62271c7c6accdbec8876cd7f5e08",
        "GUID:f74fce273c589ec39831245b61868f8a",
        "GUID:12622c206f23e7bc8a49520f6ab92957",
        "GUID:a0feb231c2a5e380596775734ac49aa7",
        "GUID:46be60966af7373bfa082628ae7f0c03",
        "GUID:dfff43cc068e31d168a022c7ea9ca938",
        "GUID:572b93e627b802e09befcd841f1bc0f4",
        "GUID:37ad5944b16659e7089da02cb1af749a",
        "GUID:255cad69790c35a7e8325b53d5684842",
        "GUID:734d92eba21c94caba915361bd5ac177",
        "GUID:2665a8d13d1b3f18800f46e256720795",
        "GUID:e0cd26848372d4e5c891c569017e11f1",
        "GUID:8a2eafa29b15f444eb6d74f94a930e1d",
        "GUID:d8b63aba1907145bea998dd612889d6b"
    ],
    "includePlatforms": [],
    "excludePlatforms": [],
    "allowUnsafeCode": false,
    "overrideReferences": false,
    "precompiledReferences": [],
    "autoReferenced": false,
    "defineConstraints": [],
    "versionDefines": [],
    "noEngineReferences": false
}