%YAML 1.1
%TAG !u! tag:unity3d.com,2011:
--- !u!1 &5475182597479214184
GameObject:
  m_ObjectHideFlags: 0
  m_CorrespondingSourceObject: {fileID: 0}
  m_PrefabInstance: {fileID: 0}
  m_PrefabAsset: {fileID: 0}
  serializedVersion: 6
  m_Component:
  - component: {fileID: 5475182597479214183}
  - component: {fileID: 5475182597479214182}
  - component: {fileID: 5475182597479214185}
  m_Layer: 0
  m_Name: NetworkManager
  m_TagString: Untagged
  m_Icon: {fileID: 0}
  m_NavMeshLayer: 0
  m_StaticEditorFlags: 0
  m_IsActive: 1
--- !u!4 &5475182597479214183
Transform:
  m_ObjectHideFlags: 0
  m_CorrespondingSourceObject: {fileID: 0}
  m_PrefabInstance: {fileID: 0}
  m_PrefabAsset: {fileID: 0}
  m_GameObject: {fileID: 5475182597479214184}
  m_LocalRotation: {x: 0, y: 0, z: 0, w: 1}
  m_LocalPosition: {x: -267.71976, y: -258.8256, z: -275.47922}
  m_LocalScale: {x: 1, y: 1, z: 1}
  m_ConstrainProportionsScale: 0
  m_Children: []
  m_Father: {fileID: 0}
  m_RootOrder: 0
  m_LocalEulerAnglesHint: {x: 0, y: 0, z: 0}
--- !u!114 &5475182597479214182
MonoBehaviour:
  m_ObjectHideFlags: 0
  m_CorrespondingSourceObject: {fileID: 0}
  m_PrefabInstance: {fileID: 0}
  m_PrefabAsset: {fileID: 0}
  m_GameObject: {fileID: 5475182597479214184}
  m_Enabled: 1
  m_EditorHideFlags: 0
  m_Script: {fileID: 11500000, guid: d9c2a96318faf61afad88247daa68ebe, type: 3}
  m_Name: 
  m_EditorClassIdentifier: 
  isServerMode: 0
  publicIP: 
  localIP: 
--- !u!114 &5475182597479214185
MonoBehaviour:
  m_ObjectHideFlags: 0
  m_CorrespondingSourceObject: {fileID: 0}
  m_PrefabInstance: {fileID: 0}
  m_PrefabAsset: {fileID: 0}
  m_GameObject: {fileID: 5475182597479214184}
  m_Enabled: 1
  m_EditorHideFlags: 0
  m_Script: {fileID: 11500000, guid: bd05a659d1573b9debb103da2d0f4b1b, type: 3}
  m_Name: 
  m_EditorClassIdentifier: 
  font: {fileID: 10102, guid: 0000000000000000e000000000000000, type: 0}
  fontSize: 22
  fontColor: {r: 0, g: 1, b: 0, a: 1}
  lobbyIP: 192.168.0.107
