{
    "name": "Zoxel.Items.Voxels",
    "rootNamespace": "Zoxel.Items",
    "references": [
        "GUID:bbf05cd9536d2e27aaf788c167aba953",
        "GUID:df60c0b3e31f524c988c9db3b9f0c0ed",
        "GUID:99c9dcfdd49f7d20abf30fbd95f2f598",
        "GUID:30eb478aca6c27e76b72238e9798e876",
        "GUID:54fd62271c7c6accdbec8876cd7f5e08",
        "GUID:f7bd6cf7d1e035a48b671086c7e44bde",
        "GUID:c541ef4e6e1fe9bb18997788ef486430",
        "GUID:87fdd5594b1fd04c68ade55c39150bf0",
        "GUID:80d5ff2bff3fa9c4e84079673c70e897",
        "GUID:e59511d402d4635f5975f43a5c7804fd",
        "GUID:a8f3f37d6b36aa984906066845dd939c",
        "GUID:f4015aa11fe42021080a9cf9545edb37",
        "GUID:c1f9c15fa41483174b9ddb3b3822cb00",
        "GUID:d08943fd45e9044ac9f81d131662ca56",
        "GUID:734d92eba21c94caba915361bd5ac177",
        "GUID:2665a8d13d1b3f18800f46e256720795",
        "GUID:8a2eafa29b15f444eb6d74f94a930e1d",
        "GUID:e0cd26848372d4e5c891c569017e11f1",
        "GUID:d8b63aba1907145bea998dd612889d6b"
    ],
    "includePlatforms": [],
    "excludePlatforms": [],
    "allowUnsafeCode": false,
    "overrideReferences": false,
    "precompiledReferences": [],
    "autoReferenced": false,
    "defineConstraints": [],
    "versionDefines": [],
    "noEngineReferences": false
}