%YAML 1.1
%TAG !u! tag:unity3d.com,2011:
--- !u!114 &11400000
MonoBehaviour:
  m_ObjectHideFlags: 0
  m_CorrespondingSourceObject: {fileID: 0}
  m_PrefabInstance: {fileID: 0}
  m_PrefabAsset: {fileID: 0}
  m_GameObject: {fileID: 0}
  m_Enabled: 1
  m_EditorHideFlags: 0
  m_Script: {fileID: 11500000, guid: 9fa90fe43c9e8419cb763d42cf662dff, type: 3}
  m_Name: zoxel-item-settings
  m_EditorClassIdentifier: 
  itemsSettings:
    itemLifeTime: 90
    itemPickupRadius: 1
    heldVoxOffset:
      x: -0.086
      y: 0.06
      z: 0
    heldVoxelOffset:
      x: -0.14
      y: 0.06
      z: 0
    playerItemsCount: 12
    isDebugHeldItem: 0
    isUnlimitedItems: 0
    disableWorldItems: 0
  items:
  - {fileID: 6052815559615880422, guid: 66f6d4397a449d94f98c8d8610d7230d, type: 3}
  - {fileID: 7177733914396621326, guid: 47b40f398622f6b45a9610b7d1de95a6, type: 3}
  - {fileID: -512455012817922779, guid: ced9875a0002b764390625b36818dde5, type: 3}
  - {fileID: 2288877101906815068, guid: 790f2c82114eb6b40b7272a2a9b54408, type: 3}
  - {fileID: -4087109501681283782, guid: 6cfcaf5e55757f64087c8469d179ab0c, type: 3}
  - {fileID: -8942720468950571733, guid: eee1203c8bf80ca47bb0aca947ee5bd1, type: 3}
  - {fileID: -646887220175063797, guid: 814b96f4b17fdf749b722f4776401cd3, type: 3}
  - {fileID: -1698753972070738930, guid: 1514e19367f989b29a79ebe2e3436ece, type: 3}
  slots:
  - {fileID: 11400000, guid: 1e2f90d5304ed1a78b997b3884891aa9, type: 2}
  - {fileID: 11400000, guid: 5e10a2ff8e20af214ac4c19af32529e4, type: 2}
  - {fileID: 11400000, guid: 55667af11a3b725f68102a2217314897, type: 2}
  - {fileID: 11400000, guid: be6fa7e0069a14320bb8853ad9d2bb85, type: 2}
  - {fileID: 11400000, guid: 1e70b9466b2ccb5b198182b23cc68e04, type: 2}
  - {fileID: 11400000, guid: 16fbed0e8a58923448776b672a87b84f, type: 2}
  - {fileID: 11400000, guid: 1fb58bb71b68a9347a22d9edd3d9ad42, type: 2}
  - {fileID: 11400000, guid: 2cd1f7a19ec2111de958618f4f4f99e5, type: 2}
  - {fileID: 11400000, guid: 0e45c0ec7869c7a7291947f43b6d73df, type: 2}
  - {fileID: 11400000, guid: 31333b2eb28110a7e98d95da907a4548, type: 2}
  - {fileID: 11400000, guid: 54e79129de25df15a94f83dea339550f, type: 2}
  - {fileID: 11400000, guid: 0af11db6e4d02597b90952bdc260fd14, type: 2}
  - {fileID: 11400000, guid: 0c48ee5ddee12e7e1bcdb9b5d5cb9c1a, type: 2}
  - {fileID: 11400000, guid: 2b4aeb9d7259b053b9f9d63f111fea0c, type: 2}
  - {fileID: 11400000, guid: c27a5f85e1f7abbe19e4e95b5f83c5a2, type: 2}
  - {fileID: 11400000, guid: d67ec53f6f44cc83181b954c7a25bc23, type: 2}
  - {fileID: 11400000, guid: eefa5d936833d5e9698d5c1f260b8386, type: 2}
