{
    "name": "Zoxel.Items.WorldItemsRendering",
    "rootNamespace": "Zoxel.Items",
    "references": [
        "GUID:bbf05cd9536d2e27aaf788c167aba953",
        "GUID:99c9dcfdd49f7d20abf30fbd95f2f598",
        "GUID:c541ef4e6e1fe9bb18997788ef486430",
        "GUID:c1f9c15fa41483174b9ddb3b3822cb00",
        "GUID:8c6247ca3b085acdeab7af17885d62cf",
        "GUID:80d5ff2bff3fa9c4e84079673c70e897",
        "GUID:f74fce273c589ec39831245b61868f8a",
        "GUID:734d92eba21c94caba915361bd5ac177",
        "GUID:2665a8d13d1b3f18800f46e256720795",
        "GUID:e0cd26848372d4e5c891c569017e11f1",
        "GUID:d8b63aba1907145bea998dd612889d6b",
        "GUID:8a2eafa29b15f444eb6d74f94a930e1d"
    ],
    "includePlatforms": [],
    "excludePlatforms": [],
    "allowUnsafeCode": false,
    "overrideReferences": false,
    "precompiledReferences": [],
    "autoReferenced": false,
    "defineConstraints": [],
    "versionDefines": [],
    "noEngineReferences": false
}