%YAML 1.1
%TAG !u! tag:unity3d.com,2011:
--- !u!114 &-1407105460487644955
MonoBehaviour:
  m_ObjectHideFlags: 3
  m_CorrespondingSourceObject: {fileID: 0}
  m_PrefabInstance: {fileID: 0}
  m_PrefabAsset: {fileID: 0}
  m_GameObject: {fileID: 0}
  m_Enabled: 1
  m_EditorHideFlags: 0
  m_Script: {fileID: 11500000, guid: 29fa0085f50d5e54f8144f766051a691, type: 3}
  m_Name: FilmGrain
  m_EditorClassIdentifier: 
  active: 0
  m_AdvancedMode: 0
  type:
    m_OverrideState: 1
    m_Value: 7
  intensity:
    m_OverrideState: 1
    m_Value: 0.287
    min: 0
    max: 1
  response:
    m_OverrideState: 1
    m_Value: 0.91
    min: 0
    max: 1
  texture:
    m_OverrideState: 0
    m_Value: {fileID: 0}
--- !u!114 &11400000
MonoBehaviour:
  m_ObjectHideFlags: 0
  m_CorrespondingSourceObject: {fileID: 0}
  m_PrefabInstance: {fileID: 0}
  m_PrefabAsset: {fileID: 0}
  m_GameObject: {fileID: 0}
  m_Enabled: 1
  m_EditorHideFlags: 0
  m_Script: {fileID: 11500000, guid: d7fd9488000d3734a9e00ee676215985, type: 3}
  m_Name: GameProfile 1
  m_EditorClassIdentifier: 
  components:
  - {fileID: -1407105460487644955}
  - {fileID: 6908433348235091111}
  - {fileID: 3004730071619328857}
  - {fileID: 8007551540878646703}
--- !u!114 &3004730071619328857
MonoBehaviour:
  m_ObjectHideFlags: 3
  m_CorrespondingSourceObject: {fileID: 0}
  m_PrefabInstance: {fileID: 0}
  m_PrefabAsset: {fileID: 0}
  m_GameObject: {fileID: 0}
  m_Enabled: 1
  m_EditorHideFlags: 0
  m_Script: {fileID: 11500000, guid: 0b2db86121404754db890f4c8dfe81b2, type: 3}
  m_Name: Bloom
  m_EditorClassIdentifier: 
  active: 0
  m_AdvancedMode: 0
  threshold:
    m_OverrideState: 1
    m_Value: 0.1
    min: 0
  intensity:
    m_OverrideState: 1
    m_Value: 0.5
    min: 0
  scatter:
    m_OverrideState: 1
    m_Value: 0.7
    min: 0
    max: 1
  clamp:
    m_OverrideState: 0
    m_Value: 65472
    min: 0
  tint:
    m_OverrideState: 0
    m_Value: {r: 1, g: 1, b: 1, a: 1}
    hdr: 0
    showAlpha: 0
    showEyeDropper: 1
  highQualityFiltering:
    m_OverrideState: 1
    m_Value: 1
  skipIterations:
    m_OverrideState: 0
    m_Value: 1
    min: 0
    max: 16
  dirtTexture:
    m_OverrideState: 0
    m_Value: {fileID: 0}
  dirtIntensity:
    m_OverrideState: 0
    m_Value: 0
    min: 0
--- !u!114 &6908433348235091111
MonoBehaviour:
  m_ObjectHideFlags: 3
  m_CorrespondingSourceObject: {fileID: 0}
  m_PrefabInstance: {fileID: 0}
  m_PrefabAsset: {fileID: 0}
  m_GameObject: {fileID: 0}
  m_Enabled: 1
  m_EditorHideFlags: 0
  m_Script: {fileID: 11500000, guid: 97c23e3b12dc18c42a140437e53d3951, type: 3}
  m_Name: Tonemapping
  m_EditorClassIdentifier: 
  active: 0
  m_AdvancedMode: 0
  mode:
    m_OverrideState: 1
    m_Value: 2
--- !u!114 &8007551540878646703
MonoBehaviour:
  m_ObjectHideFlags: 3
  m_CorrespondingSourceObject: {fileID: 0}
  m_PrefabInstance: {fileID: 0}
  m_PrefabAsset: {fileID: 0}
  m_GameObject: {fileID: 0}
  m_Enabled: 1
  m_EditorHideFlags: 0
  m_Script: {fileID: 11500000, guid: 5485954d14dfb9a4c8ead8edb0ded5b1, type: 3}
  m_Name: LiftGammaGain
  m_EditorClassIdentifier: 
  active: 0
  m_AdvancedMode: 0
  lift:
    m_OverrideState: 0
    m_Value: {x: 0.6625004, y: 0.7724899, z: 1, w: -0.09756097}
  gamma:
    m_OverrideState: 0
    m_Value: {x: 1, y: 1, z: 1, w: 0.31219512}
  gain:
    m_OverrideState: 1
    m_Value: {x: 1, y: 1, z: 1, w: -0.33170733}
