{
    "name": "Zoxel.Items.Activation",
    "rootNamespace": "Zoxel.Items",
    "references": [
        "GUID:bbf05cd9536d2e27aaf788c167aba953",
        "GUID:99c9dcfdd49f7d20abf30fbd95f2f598",
        "GUID:df60c0b3e31f524c988c9db3b9f0c0ed",
        "GUID:091116dac559b9b1195ca1be52a328e7",
        "GUID:30eb478aca6c27e76b72238e9798e876",
        "GUID:54fd62271c7c6accdbec8876cd7f5e08",
        "GUID:f7bd6cf7d1e035a48b671086c7e44bde",
        "GUID:80d5ff2bff3fa9c4e84079673c70e897",
        "GUID:c541ef4e6e1fe9bb18997788ef486430",
        "GUID:f98773346a4dd6f8eafa736545fc3148",
        "GUID:12622c206f23e7bc8a49520f6ab92957",
        "GUID:572b93e627b802e09befcd841f1bc0f4",
        "GUID:01a92d691687048bd9f40db64e281e20",
        "GUID:37ad5944b16659e7089da02cb1af749a",
        "GUID:734d92eba21c94caba915361bd5ac177",
        "GUID:2665a8d13d1b3f18800f46e256720795",
        "GUID:8a2eafa29b15f444eb6d74f94a930e1d",
        "GUID:e0cd26848372d4e5c891c569017e11f1",
        "GUID:d8b63aba1907145bea998dd612889d6b",
        "GUID:d08943fd45e9044ac9f81d131662ca56"
    ],
    "includePlatforms": [],
    "excludePlatforms": [],
    "allowUnsafeCode": false,
    "overrideReferences": false,
    "precompiledReferences": [],
    "autoReferenced": false,
    "defineConstraints": [],
    "versionDefines": [],
    "noEngineReferences": false
}